<svg width="22" height="11" viewBox="0 0 22 11" fill="none" xmlns="http://www.w3.org/2000/svg">
<path d="M6.58329 7.03629H21.4108C21.7362 7.03629 22 6.78443 22 6.47379V3.84879C22 3.53815 21.7362 3.28629 21.4108 3.28629H6.58329V1.12727C6.58329 0.124989 5.31382 -0.376948 4.57132 0.331755L0.345211 4.36577C-0.11507 4.80513 -0.11507 5.51744 0.345211 5.95675L4.57132 9.99077C5.31377 10.6995 6.58329 10.1975 6.58329 9.19526V7.03629Z" fill="white"/>
</svg>
